{
    "L2muon":{ 
        "chains" : "HLT_mu24_idperf_L1MU20:HLT_IDTrack_Muon_FTF:HLT_Roi_L2SAMuon"
    },
    "EFmuon":{ 
        "chains" : "HLT_mu24_idperf_L1MU20:HLT_IDTrack_Muon_FTF:HLT_Roi_L2SAMuon  HLT_mu24_idperf_L1MU20:HLT_IDTrack_Muon_IDTrig:HLT_Roi_L2SAMuonForEF"  
    },
    "L2muonLowpt":{ 
        "chains" : "HLT_mu6_idperf_L1MU6:HLT_IDTrack_Muon_FTF:HLT_Roi_L2SAMuon"
    },
    "EFmuonLowpt":{ 
        "chains" : "HLT_mu6_idperf_L1MU6:HLT_IDTrack_Muon_FTF:HLT_Roi_L2SAMuon  HLT_mu6_idperf_L1MU6:HLT_IDTrack_Muon_IDTrig:HLT_Roi_L2SAMuonForEF"  
    },
    "L2electron":{ 
        "chains" : "HLT_e17_lhvloose_nod0_L1EM15VH:HLT_IDTrack_Electron_FTF"
    },
    "EFelectron":{ 
        "chains" : "HLT_e17_lhvloose_nod0_L1EM15VH:HLT_IDTrack_Electron_FTF HLT_e17_lhvloose_nod0_L1EM15VH:HLT_IDTrack_Electron_IDTrig"
    },
    "L2electronLowpt":{ 
        "chains" : "HLT_e5_etcut_L1EM3:HLT_IDTrack_Electron_FTF"
    },
    "EFelectronLowpt":{ 
        "chains" : "HLT_e5_etcut_L1EM3:HLT_IDTrack_Electron_FTF HLT_e5_etcut_L1EM3:HLT_IDTrack_Electron_IDTrig"  
    },
    "L2tau":{ 
        "chains" : "HLT_tau25_idperf_tracktwo_L1TAU12IM:HLT_IDTrack_TauCore_FTF:HLT_Roi_TauCore"
    },
    "EFtau":{ 
        "chains" : "HLT_tau25_idperf_tracktwo_L1TAU12IM:HLT_IDTrack_TauCore_FTF:HLT_Roi_TauCore HLT_tau25_idperf_tracktwo_L1TAU12IM:HLT_IDTrack_Tau_IDTrig:HLT_TAURoI"
    },
    "L2bjet":{ 
        "chains" : "HLT_j45_subjesgscIS_ftf_boffperf_split_L1J20:HLT_IDTrack_Bjet_FTF"
    },
    "EFbjet":{ 
        "chains" : "HLT_j45_subjesgscIS_ftf_boffperf_split_L1J20:HLT_IDTrack_Bjet_FTF HLT_j45_subjesgscIS_ftf_boffperf_split_L1J20:HLT_IDTrack_Bjet_IDTrig"
    },
    "L2FS":{ 
        "chains" : "HLT_j45_ftf_subjesgscIS_boffperf_split_L1J20:HLT_IDTrack_FS_FTF:HLT_FSRoI:HLT_IDVertex_FS"
    },
    "L2fsjet":{ 
        "chains" : "HLT_j45_ftf_L1J15:HLT_IDTrack_FS_FTF:HLT_FSRoI:HLT_IDVertex_FS"
    },
    "L2minbias":{ 
        "chains" : "HLT_mb_sptrk_L1RD0_FILLED:HLT_IDTrack_MinBias_FTF"
    },
    "EFminbias":{ 
        "chains" : "HLT_mb_sptrk_L1RD0_FILLED:HLT_IDTrack_MinBias_IDTrig"
    }
}
